// Jest Snapshot v1, https://goo.gl/fbAQLP

exports[`base-table component render a base-table 1`] = `
<div>
  <div
    class="ant-table-wrapper  css-8xg9tx"
  >
    <div
      class="ant-spin-nested-loading"
    >
      <div
        class="ant-spin-container"
      >
        <div
          class="ant-table ant-table-middle ant-table-bordered ant-table-scroll-position-left"
        >
          <div
            class="ant-table-content"
          >
            <div
              class="ant-table-body"
            >
              <table
                class=""
              >
                <colgroup>
                  <col
                    class="ant-table-selection-col"
                  />
                  <col
                    style="width: 80px; min-width: 80px;"
                  />
                  <col />
                  <col
                    style="width: 300px; min-width: 300px;"
                  />
                  <col
                    style="width: 110px; min-width: 110px;"
                  />
                </colgroup>
                <thead
                  class="ant-table-thead"
                >
                  <tr>
                    <th
                      class="ant-table-selection-column"
                    >
                      <span
                        class="ant-table-header-column"
                      >
                        <div>
                          <span
                            class="ant-table-column-title"
                          >
                            <div
                              class="ant-table-selection"
                            >
                              <label
                                class="ant-checkbox-wrapper"
                              >
                                <span
                                  class="ant-checkbox"
                                >
                                  <input
                                    class="ant-checkbox-input"
                                    type="checkbox"
                                    value=""
                                  />
                                  <span
                                    class="ant-checkbox-inner"
                                  />
                                </span>
                              </label>
                            </div>
                          </span>
                          <span
                            class="ant-table-column-sorter"
                          />
                        </div>
                      </span>
                    </th>
                    <th
                      class="ant-table-align-left"
                      style="text-align: left;"
                    >
                      <span
                        class="ant-table-header-column"
                      >
                        <div>
                          <span
                            class="ant-table-column-title"
                          >
                            ID
                          </span>
                          <span
                            class="ant-table-column-sorter"
                          />
                        </div>
                      </span>
                    </th>
                    <th
                      class="ant-table-align-left"
                      style="text-align: left;"
                    >
                      <span
                        class="ant-table-header-column"
                      >
                        <div>
                          <span
                            class="ant-table-column-title"
                          >
                            Наименование прибора
                          </span>
                          <span
                            class="ant-table-column-sorter"
                          />
                        </div>
                      </span>
                    </th>
                    <th
                      class="ant-table-align-left"
                      style="text-align: left;"
                    >
                      <span
                        class="ant-table-header-column"
                      >
                        <div>
                          <span
                            class="ant-table-column-title"
                          >
                            Период
                          </span>
                          <span
                            class="ant-table-column-sorter"
                          />
                        </div>
                      </span>
                    </th>
                    <th
                      class="ant-table-align-center"
                      style="text-align: center;"
                    >
                      <span
                        class="ant-table-header-column"
                      >
                        <div>
                          <span
                            class="ant-table-column-title"
                          >
                            Действия
                          </span>
                          <span
                            class="ant-table-column-sorter"
                          />
                        </div>
                      </span>
                    </th>
                  </tr>
                </thead>
                <tbody
                  class="ant-table-tbody"
                >
                  <tr
                    class="ant-table-row ant-table-row-level-0"
                    data-row-key="212"
                  >
                    <td
                      class="ant-table-selection-column"
                    >
                      <span>
                        <label
                          class="ant-checkbox-wrapper"
                        >
                          <span
                            class="ant-checkbox"
                          >
                            <input
                              class="ant-checkbox-input"
                              type="checkbox"
                              value=""
                            />
                            <span
                              class="ant-checkbox-inner"
                            />
                          </span>
                        </label>
                      </span>
                    </td>
                    <td
                      class=""
                      style="text-align: left;"
                    >
                      <span
                        class="ant-table-row-indent indent-level-0"
                        style="padding-left: 0px;"
                      />
                      212
                    </td>
                    <td
                      class=""
                      style="text-align: left;"
                    >
                      12123
                    </td>
                    <td
                      class=""
                      style="text-align: left;"
                    >
                      1d
                    </td>
                    <td
                      class=""
                      style="text-align: center;"
                    />
                  </tr>
                  <tr
                    class="ant-table-row ant-table-row-level-0"
                    data-row-key="213"
                  >
                    <td
                      class="ant-table-selection-column"
                    >
                      <span>
                        <label
                          class="ant-checkbox-wrapper"
                        >
                          <span
                            class="ant-checkbox"
                          >
                            <input
                              class="ant-checkbox-input"
                              type="checkbox"
                              value=""
                            />
                            <span
                              class="ant-checkbox-inner"
                            />
                          </span>
                        </label>
                      </span>
                    </td>
                    <td
                      class=""
                      style="text-align: left;"
                    >
                      <span
                        class="ant-table-row-indent indent-level-0"
                        style="padding-left: 0px;"
                      />
                      213
                    </td>
                    <td
                      class=""
                      style="text-align: left;"
                    >
                      222
                    </td>
                    <td
                      class=""
                      style="text-align: left;"
                    >
                      1d
                    </td>
                    <td
                      class=""
                      style="text-align: center;"
                    />
                  </tr>
                  <tr
                    class="ant-table-row ant-table-row-level-0"
                    data-row-key="214"
                  >
                    <td
                      class="ant-table-selection-column"
                    >
                      <span>
                        <label
                          class="ant-checkbox-wrapper"
                        >
                          <span
                            class="ant-checkbox"
                          >
                            <input
                              class="ant-checkbox-input"
                              type="checkbox"
                              value=""
                            />
                            <span
                              class="ant-checkbox-inner"
                            />
                          </span>
                        </label>
                      </span>
                    </td>
                    <td
                      class=""
                      style="text-align: left;"
                    >
                      <span
                        class="ant-table-row-indent indent-level-0"
                        style="padding-left: 0px;"
                      />
                      214
                    </td>
                    <td
                      class=""
                      style="text-align: left;"
                    >
                      23233
                    </td>
                    <td
                      class=""
                      style="text-align: left;"
                    >
                      1d
                    </td>
                    <td
                      class=""
                      style="text-align: center;"
                    />
                  </tr>
                  <tr
                    class="ant-table-row ant-table-row-level-0"
                    data-row-key="215"
                  >
                    <td
                      class="ant-table-selection-column"
                    >
                      <span>
                        <label
                          class="ant-checkbox-wrapper"
                        >
                          <span
                            class="ant-checkbox"
                          >
                            <input
                              class="ant-checkbox-input"
                              type="checkbox"
                              value=""
                            />
                            <span
                              class="ant-checkbox-inner"
                            />
                          </span>
                        </label>
                      </span>
                    </td>
                    <td
                      class=""
                      style="text-align: left;"
                    >
                      <span
                        class="ant-table-row-indent indent-level-0"
                        style="padding-left: 0px;"
                      />
                      215
                    </td>
                    <td
                      class=""
                      style="text-align: left;"
                    >
                      Меркурий230
                    </td>
                    <td
                      class=""
                      style="text-align: left;"
                    >
                      1m
                    </td>
                    <td
                      class=""
                      style="text-align: center;"
                    />
                  </tr>
                  <tr
                    class="ant-table-row ant-table-row-level-0"
                    data-row-key="220"
                  >
                    <td
                      class="ant-table-selection-column"
                    >
                      <span>
                        <label
                          class="ant-checkbox-wrapper"
                        >
                          <span
                            class="ant-checkbox"
                          >
                            <input
                              class="ant-checkbox-input"
                              type="checkbox"
                              value=""
                            />
                            <span
                              class="ant-checkbox-inner"
                            />
                          </span>
                        </label>
                      </span>
                    </td>
                    <td
                      class=""
                      style="text-align: left;"
                    >
                      <span
                        class="ant-table-row-indent indent-level-0"
                        style="padding-left: 0px;"
                      />
                      220
                    </td>
                    <td
                      class=""
                      style="text-align: left;"
                    >
                      Еще один тестовый отчет
                    </td>
                    <td
                      class=""
                      style="text-align: left;"
                    >
                      1d
                    </td>
                    <td
                      class=""
                      style="text-align: center;"
                    />
                  </tr>
                  <tr
                    class="ant-table-row ant-table-row-level-0"
                    data-row-key="221"
                  >
                    <td
                      class="ant-table-selection-column"
                    >
                      <span>
                        <label
                          class="ant-checkbox-wrapper"
                        >
                          <span
                            class="ant-checkbox"
                          >
                            <input
                              class="ant-checkbox-input"
                              type="checkbox"
                              value=""
                            />
                            <span
                              class="ant-checkbox-inner"
                            />
                          </span>
                        </label>
                      </span>
                    </td>
                    <td
                      class=""
                      style="text-align: left;"
                    >
                      <span
                        class="ant-table-row-indent indent-level-0"
                        style="padding-left: 0px;"
                      />
                      221
                    </td>
                    <td
                      class=""
                      style="text-align: left;"
                    >
                      test
                    </td>
                    <td
                      class=""
                      style="text-align: left;"
                    >
                      1d
                    </td>
                    <td
                      class=""
                      style="text-align: center;"
                    />
                  </tr>
                  <tr
                    class="ant-table-row ant-table-row-level-0"
                    data-row-key="222"
                  >
                    <td
                      class="ant-table-selection-column"
                    >
                      <span>
                        <label
                          class="ant-checkbox-wrapper"
                        >
                          <span
                            class="ant-checkbox"
                          >
                            <input
                              class="ant-checkbox-input"
                              type="checkbox"
                              value=""
                            />
                            <span
                              class="ant-checkbox-inner"
                            />
                          </span>
                        </label>
                      </span>
                    </td>
                    <td
                      class=""
                      style="text-align: left;"
                    >
                      <span
                        class="ant-table-row-indent indent-level-0"
                        style="padding-left: 0px;"
                      />
                      222
                    </td>
                    <td
                      class=""
                      style="text-align: left;"
                    >
                      3 min
                    </td>
                    <td
                      class=""
                      style="text-align: left;"
                    >
                      1d
                    </td>
                    <td
                      class=""
                      style="text-align: center;"
                    />
                  </tr>
                  <tr
                    class="ant-table-row ant-table-row-level-0"
                    data-row-key="810"
                  >
                    <td
                      class="ant-table-selection-column"
                    >
                      <span>
                        <label
                          class="ant-checkbox-wrapper"
                        >
                          <span
                            class="ant-checkbox"
                          >
                            <input
                              class="ant-checkbox-input"
                              type="checkbox"
                              value=""
                            />
                            <span
                              class="ant-checkbox-inner"
                            />
                          </span>
                        </label>
                      </span>
                    </td>
                    <td
                      class=""
                      style="text-align: left;"
                    >
                      <span
                        class="ant-table-row-indent indent-level-0"
                        style="padding-left: 0px;"
                      />
                      810
                    </td>
                    <td
                      class=""
                      style="text-align: left;"
                    >
                      autotest_report_copy
                    </td>
                    <td
                      class=""
                      style="text-align: left;"
                    >
                      1d
                    </td>
                    <td
                      class=""
                      style="text-align: center;"
                    />
                  </tr>
                  <tr
                    class="ant-table-row ant-table-row-level-0"
                    data-row-key="819"
                  >
                    <td
                      class="ant-table-selection-column"
                    >
                      <span>
                        <label
                          class="ant-checkbox-wrapper"
                        >
                          <span
                            class="ant-checkbox"
                          >
                            <input
                              class="ant-checkbox-input"
                              type="checkbox"
                              value=""
                            />
                            <span
                              class="ant-checkbox-inner"
                            />
                          </span>
                        </label>
                      </span>
                    </td>
                    <td
                      class=""
                      style="text-align: left;"
                    >
                      <span
                        class="ant-table-row-indent indent-level-0"
                        style="padding-left: 0px;"
                      />
                      819
                    </td>
                    <td
                      class=""
                      style="text-align: left;"
                    >
                       
                    </td>
                    <td
                      class=""
                      style="text-align: left;"
                    >
                      1d
                    </td>
                    <td
                      class=""
                      style="text-align: center;"
                    />
                  </tr>
                  <tr
                    class="ant-table-row ant-table-row-level-0"
                    data-row-key="821"
                  >
                    <td
                      class="ant-table-selection-column"
                    >
                      <span>
                        <label
                          class="ant-checkbox-wrapper"
                        >
                          <span
                            class="ant-checkbox"
                          >
                            <input
                              class="ant-checkbox-input"
                              type="checkbox"
                              value=""
                            />
                            <span
                              class="ant-checkbox-inner"
                            />
                          </span>
                        </label>
                      </span>
                    </td>
                    <td
                      class=""
                      style="text-align: left;"
                    >
                      <span
                        class="ant-table-row-indent indent-level-0"
                        style="padding-left: 0px;"
                      />
                      821
                    </td>
                    <td
                      class=""
                      style="text-align: left;"
                    >
                      
                    </td>
                    <td
                      class=""
                      style="text-align: left;"
                    >
                      1d
                    </td>
                    <td
                      class=""
                      style="text-align: center;"
                    />
                  </tr>
                </tbody>
              </table>
            </div>
          </div>
        </div>
        <ul
          class="ant-pagination custom__pagination ant-table-pagination mini"
          unselectable="unselectable"
        >
          <li
            class="ant-pagination-total-text"
          >
            1-10 из 21
          </li>
          <li
            aria-disabled="true"
            class="ant-pagination-disabled ant-pagination-prev"
            title="Previous Page"
          >
            <a
              class="ant-pagination-item-link"
            >
              <i
                aria-label="icon: left"
                class="anticon anticon-left"
              >
                <svg
                  aria-hidden="true"
                  class=""
                  data-icon="left"
                  fill="currentColor"
                  focusable="false"
                  height="1em"
                  viewBox="64 64 896 896"
                  width="1em"
                >
                  <path
                    d="M724 218.3V141c0-6.7-7.7-10.4-12.9-6.3L260.3 486.8a31.86 31.86 0 0 0 0 50.3l450.8 352.1c5.3 4.1 12.9.4 12.9-6.3v-77.3c0-4.9-2.3-9.6-6.1-12.6l-360-281 360-281.1c3.8-3 6.1-7.7 6.1-12.6z"
                  />
                </svg>
              </i>
            </a>
          </li>
          <li
            class="ant-pagination-item ant-pagination-item-1 ant-pagination-item-active"
            tabindex="0"
            title="1"
          >
            <a>
              1
            </a>
          </li>
          <li
            class="ant-pagination-item ant-pagination-item-2"
            tabindex="0"
            title="2"
          >
            <a>
              2
            </a>
          </li>
          <li
            class="ant-pagination-item ant-pagination-item-3"
            tabindex="0"
            title="3"
          >
            <a>
              3
            </a>
          </li>
          <li
            aria-disabled="false"
            class=" ant-pagination-next"
            tabindex="0"
            title="Next Page"
          >
            <a
              class="ant-pagination-item-link"
            >
              <i
                aria-label="icon: right"
                class="anticon anticon-right"
              >
                <svg
                  aria-hidden="true"
                  class=""
                  data-icon="right"
                  fill="currentColor"
                  focusable="false"
                  height="1em"
                  viewBox="64 64 896 896"
                  width="1em"
                >
                  <path
                    d="M765.7 486.8L314.9 134.7A7.97 7.97 0 0 0 302 141v77.3c0 4.9 2.3 9.6 6.1 12.6l360 281.1-360 281.1c-3.9 3-6.1 7.7-6.1 12.6V883c0 6.7 7.7 10.4 12.9 6.3l450.8-352.1a31.96 31.96 0 0 0 0-50.4z"
                  />
                </svg>
              </i>
            </a>
          </li>
          <li
            class="ant-pagination-options"
          >
            <div
              class="ant-select-sm ant-pagination-options-size-changer ant-select ant-select-enabled"
            >
              <div
                aria-autocomplete="list"
                aria-controls="test-uuid"
                aria-expanded="false"
                aria-haspopup="true"
                class="ant-select-selection
            ant-select-selection--single"
                role="combobox"
                tabindex="0"
              >
                <div
                  class="ant-select-selection__rendered"
                >
                  <div
                    class="ant-select-selection-selected-value"
                    style="display: block; opacity: 1;"
                    title="10"
                  >
                    10
                  </div>
                </div>
                <span
                  class="ant-select-arrow"
                  style="user-select: none;"
                  unselectable="on"
                >
                  <i
                    aria-label="icon: down"
                    class="anticon anticon-down ant-select-arrow-icon"
                  >
                    <svg
                      aria-hidden="true"
                      class=""
                      data-icon="down"
                      fill="currentColor"
                      focusable="false"
                      height="1em"
                      viewBox="64 64 896 896"
                      width="1em"
                    >
                      <path
                        d="M884 256h-75c-5.1 0-9.9 2.5-12.9 6.6L512 654.2 227.9 262.6c-3-4.1-7.8-6.6-12.9-6.6h-75c-6.5 0-10.3 7.4-6.5 12.7l352.6 486.1c12.8 17.6 39 17.6 51.7 0l352.6-486.1c3.9-5.3.1-12.7-6.4-12.7z"
                      />
                    </svg>
                  </i>
                </span>
              </div>
            </div>
          </li>
        </ul>
      </div>
    </div>
  </div>
</div>
`;

exports[`base-table component render a base-table 2`] = `
<div>
  <div
    class="ant-table-wrapper  css-8xg9tx"
  >
    <div
      class="ant-spin-nested-loading"
    >
      <div
        class="ant-spin-container"
      >
        <div
          class="ant-table ant-table-middle ant-table-bordered ant-table-scroll-position-left"
        >
          <div
            class="ant-table-content"
          >
            <div
              class="ant-table-body"
            >
              <table
                class=""
              >
                <colgroup>
                  <col
                    class="ant-table-selection-col"
                  />
                  <col
                    style="width: 80px; min-width: 80px;"
                  />
                  <col />
                  <col
                    style="width: 300px; min-width: 300px;"
                  />
                  <col
                    style="width: 110px; min-width: 110px;"
                  />
                </colgroup>
                <thead
                  class="ant-table-thead"
                >
                  <tr>
                    <th
                      class="ant-table-selection-column"
                    >
                      <span
                        class="ant-table-header-column"
                      >
                        <div>
                          <span
                            class="ant-table-column-title"
                          >
                            <div
                              class="ant-table-selection"
                            >
                              <label
                                class="ant-checkbox-wrapper"
                              >
                                <span
                                  class="ant-checkbox ant-checkbox-indeterminate"
                                >
                                  <input
                                    class="ant-checkbox-input"
                                    type="checkbox"
                                    value=""
                                  />
                                  <span
                                    class="ant-checkbox-inner"
                                  />
                                </span>
                              </label>
                            </div>
                          </span>
                          <span
                            class="ant-table-column-sorter"
                          />
                        </div>
                      </span>
                    </th>
                    <th
                      class="ant-table-align-left"
                      style="text-align: left;"
                    >
                      <span
                        class="ant-table-header-column"
                      >
                        <div>
                          <span
                            class="ant-table-column-title"
                          >
                            ID
                          </span>
                          <span
                            class="ant-table-column-sorter"
                          />
                        </div>
                      </span>
                    </th>
                    <th
                      class="ant-table-align-left"
                      style="text-align: left;"
                    >
                      <span
                        class="ant-table-header-column"
                      >
                        <div>
                          <span
                            class="ant-table-column-title"
                          >
                            Наименование прибора
                          </span>
                          <span
                            class="ant-table-column-sorter"
                          />
                        </div>
                      </span>
                    </th>
                    <th
                      class="ant-table-align-left"
                      style="text-align: left;"
                    >
                      <span
                        class="ant-table-header-column"
                      >
                        <div>
                          <span
                            class="ant-table-column-title"
                          >
                            Период
                          </span>
                          <span
                            class="ant-table-column-sorter"
                          />
                        </div>
                      </span>
                    </th>
                    <th
                      class="ant-table-align-center"
                      style="text-align: center;"
                    >
                      <span
                        class="ant-table-header-column"
                      >
                        <div>
                          <span
                            class="ant-table-column-title"
                          >
                            Действия
                          </span>
                          <span
                            class="ant-table-column-sorter"
                          />
                        </div>
                      </span>
                    </th>
                  </tr>
                </thead>
                <tbody
                  class="ant-table-tbody"
                >
                  <tr
                    class="ant-table-row ant-table-row-level-0 ant-table-row-selected"
                    data-row-key="212"
                  >
                    <td
                      class="ant-table-selection-column"
                    >
                      <span>
                        <label
                          class="ant-checkbox-wrapper ant-checkbox-wrapper-checked"
                        >
                          <span
                            class="ant-checkbox ant-checkbox-checked"
                          >
                            <input
                              class="ant-checkbox-input"
                              type="checkbox"
                              value=""
                            />
                            <span
                              class="ant-checkbox-inner"
                            />
                          </span>
                        </label>
                      </span>
                    </td>
                    <td
                      class=""
                      style="text-align: left;"
                    >
                      <span
                        class="ant-table-row-indent indent-level-0"
                        style="padding-left: 0px;"
                      />
                      212
                    </td>
                    <td
                      class=""
                      style="text-align: left;"
                    >
                      12123
                    </td>
                    <td
                      class=""
                      style="text-align: left;"
                    >
                      1d
                    </td>
                    <td
                      class=""
                      style="text-align: center;"
                    />
                  </tr>
                  <tr
                    class="ant-table-row ant-table-row-level-0"
                    data-row-key="213"
                  >
                    <td
                      class="ant-table-selection-column"
                    >
                      <span>
                        <label
                          class="ant-checkbox-wrapper"
                        >
                          <span
                            class="ant-checkbox"
                          >
                            <input
                              class="ant-checkbox-input"
                              type="checkbox"
                              value=""
                            />
                            <span
                              class="ant-checkbox-inner"
                            />
                          </span>
                        </label>
                      </span>
                    </td>
                    <td
                      class=""
                      style="text-align: left;"
                    >
                      <span
                        class="ant-table-row-indent indent-level-0"
                        style="padding-left: 0px;"
                      />
                      213
                    </td>
                    <td
                      class=""
                      style="text-align: left;"
                    >
                      222
                    </td>
                    <td
                      class=""
                      style="text-align: left;"
                    >
                      1d
                    </td>
                    <td
                      class=""
                      style="text-align: center;"
                    />
                  </tr>
                  <tr
                    class="ant-table-row ant-table-row-level-0"
                    data-row-key="214"
                  >
                    <td
                      class="ant-table-selection-column"
                    >
                      <span>
                        <label
                          class="ant-checkbox-wrapper"
                        >
                          <span
                            class="ant-checkbox"
                          >
                            <input
                              class="ant-checkbox-input"
                              type="checkbox"
                              value=""
                            />
                            <span
                              class="ant-checkbox-inner"
                            />
                          </span>
                        </label>
                      </span>
                    </td>
                    <td
                      class=""
                      style="text-align: left;"
                    >
                      <span
                        class="ant-table-row-indent indent-level-0"
                        style="padding-left: 0px;"
                      />
                      214
                    </td>
                    <td
                      class=""
                      style="text-align: left;"
                    >
                      23233
                    </td>
                    <td
                      class=""
                      style="text-align: left;"
                    >
                      1d
                    </td>
                    <td
                      class=""
                      style="text-align: center;"
                    />
                  </tr>
                  <tr
                    class="ant-table-row ant-table-row-level-0"
                    data-row-key="215"
                  >
                    <td
                      class="ant-table-selection-column"
                    >
                      <span>
                        <label
                          class="ant-checkbox-wrapper"
                        >
                          <span
                            class="ant-checkbox"
                          >
                            <input
                              class="ant-checkbox-input"
                              type="checkbox"
                              value=""
                            />
                            <span
                              class="ant-checkbox-inner"
                            />
                          </span>
                        </label>
                      </span>
                    </td>
                    <td
                      class=""
                      style="text-align: left;"
                    >
                      <span
                        class="ant-table-row-indent indent-level-0"
                        style="padding-left: 0px;"
                      />
                      215
                    </td>
                    <td
                      class=""
                      style="text-align: left;"
                    >
                      Меркурий230
                    </td>
                    <td
                      class=""
                      style="text-align: left;"
                    >
                      1m
                    </td>
                    <td
                      class=""
                      style="text-align: center;"
                    />
                  </tr>
                  <tr
                    class="ant-table-row ant-table-row-level-0"
                    data-row-key="220"
                  >
                    <td
                      class="ant-table-selection-column"
                    >
                      <span>
                        <label
                          class="ant-checkbox-wrapper"
                        >
                          <span
                            class="ant-checkbox"
                          >
                            <input
                              class="ant-checkbox-input"
                              type="checkbox"
                              value=""
                            />
                            <span
                              class="ant-checkbox-inner"
                            />
                          </span>
                        </label>
                      </span>
                    </td>
                    <td
                      class=""
                      style="text-align: left;"
                    >
                      <span
                        class="ant-table-row-indent indent-level-0"
                        style="padding-left: 0px;"
                      />
                      220
                    </td>
                    <td
                      class=""
                      style="text-align: left;"
                    >
                      Еще один тестовый отчет
                    </td>
                    <td
                      class=""
                      style="text-align: left;"
                    >
                      1d
                    </td>
                    <td
                      class=""
                      style="text-align: center;"
                    />
                  </tr>
                  <tr
                    class="ant-table-row ant-table-row-level-0"
                    data-row-key="221"
                  >
                    <td
                      class="ant-table-selection-column"
                    >
                      <span>
                        <label
                          class="ant-checkbox-wrapper"
                        >
                          <span
                            class="ant-checkbox"
                          >
                            <input
                              class="ant-checkbox-input"
                              type="checkbox"
                              value=""
                            />
                            <span
                              class="ant-checkbox-inner"
                            />
                          </span>
                        </label>
                      </span>
                    </td>
                    <td
                      class=""
                      style="text-align: left;"
                    >
                      <span
                        class="ant-table-row-indent indent-level-0"
                        style="padding-left: 0px;"
                      />
                      221
                    </td>
                    <td
                      class=""
                      style="text-align: left;"
                    >
                      test
                    </td>
                    <td
                      class=""
                      style="text-align: left;"
                    >
                      1d
                    </td>
                    <td
                      class=""
                      style="text-align: center;"
                    />
                  </tr>
                  <tr
                    class="ant-table-row ant-table-row-level-0"
                    data-row-key="222"
                  >
                    <td
                      class="ant-table-selection-column"
                    >
                      <span>
                        <label
                          class="ant-checkbox-wrapper"
                        >
                          <span
                            class="ant-checkbox"
                          >
                            <input
                              class="ant-checkbox-input"
                              type="checkbox"
                              value=""
                            />
                            <span
                              class="ant-checkbox-inner"
                            />
                          </span>
                        </label>
                      </span>
                    </td>
                    <td
                      class=""
                      style="text-align: left;"
                    >
                      <span
                        class="ant-table-row-indent indent-level-0"
                        style="padding-left: 0px;"
                      />
                      222
                    </td>
                    <td
                      class=""
                      style="text-align: left;"
                    >
                      3 min
                    </td>
                    <td
                      class=""
                      style="text-align: left;"
                    >
                      1d
                    </td>
                    <td
                      class=""
                      style="text-align: center;"
                    />
                  </tr>
                  <tr
                    class="ant-table-row ant-table-row-level-0"
                    data-row-key="810"
                  >
                    <td
                      class="ant-table-selection-column"
                    >
                      <span>
                        <label
                          class="ant-checkbox-wrapper"
                        >
                          <span
                            class="ant-checkbox"
                          >
                            <input
                              class="ant-checkbox-input"
                              type="checkbox"
                              value=""
                            />
                            <span
                              class="ant-checkbox-inner"
                            />
                          </span>
                        </label>
                      </span>
                    </td>
                    <td
                      class=""
                      style="text-align: left;"
                    >
                      <span
                        class="ant-table-row-indent indent-level-0"
                        style="padding-left: 0px;"
                      />
                      810
                    </td>
                    <td
                      class=""
                      style="text-align: left;"
                    >
                      autotest_report_copy
                    </td>
                    <td
                      class=""
                      style="text-align: left;"
                    >
                      1d
                    </td>
                    <td
                      class=""
                      style="text-align: center;"
                    />
                  </tr>
                  <tr
                    class="ant-table-row ant-table-row-level-0"
                    data-row-key="819"
                  >
                    <td
                      class="ant-table-selection-column"
                    >
                      <span>
                        <label
                          class="ant-checkbox-wrapper"
                        >
                          <span
                            class="ant-checkbox"
                          >
                            <input
                              class="ant-checkbox-input"
                              type="checkbox"
                              value=""
                            />
                            <span
                              class="ant-checkbox-inner"
                            />
                          </span>
                        </label>
                      </span>
                    </td>
                    <td
                      class=""
                      style="text-align: left;"
                    >
                      <span
                        class="ant-table-row-indent indent-level-0"
                        style="padding-left: 0px;"
                      />
                      819
                    </td>
                    <td
                      class=""
                      style="text-align: left;"
                    >
                       
                    </td>
                    <td
                      class=""
                      style="text-align: left;"
                    >
                      1d
                    </td>
                    <td
                      class=""
                      style="text-align: center;"
                    />
                  </tr>
                  <tr
                    class="ant-table-row ant-table-row-level-0"
                    data-row-key="821"
                  >
                    <td
                      class="ant-table-selection-column"
                    >
                      <span>
                        <label
                          class="ant-checkbox-wrapper"
                        >
                          <span
                            class="ant-checkbox"
                          >
                            <input
                              class="ant-checkbox-input"
                              type="checkbox"
                              value=""
                            />
                            <span
                              class="ant-checkbox-inner"
                            />
                          </span>
                        </label>
                      </span>
                    </td>
                    <td
                      class=""
                      style="text-align: left;"
                    >
                      <span
                        class="ant-table-row-indent indent-level-0"
                        style="padding-left: 0px;"
                      />
                      821
                    </td>
                    <td
                      class=""
                      style="text-align: left;"
                    >
                      
                    </td>
                    <td
                      class=""
                      style="text-align: left;"
                    >
                      1d
                    </td>
                    <td
                      class=""
                      style="text-align: center;"
                    />
                  </tr>
                </tbody>
              </table>
            </div>
          </div>
        </div>
        <ul
          class="ant-pagination custom__pagination ant-table-pagination mini"
          unselectable="unselectable"
        >
          <li
            class="ant-pagination-total-text"
          >
            1-10 из 21
          </li>
          <li
            aria-disabled="true"
            class="ant-pagination-disabled ant-pagination-prev"
            title="Previous Page"
          >
            <a
              class="ant-pagination-item-link"
            >
              <i
                aria-label="icon: left"
                class="anticon anticon-left"
              >
                <svg
                  aria-hidden="true"
                  class=""
                  data-icon="left"
                  fill="currentColor"
                  focusable="false"
                  height="1em"
                  viewBox="64 64 896 896"
                  width="1em"
                >
                  <path
                    d="M724 218.3V141c0-6.7-7.7-10.4-12.9-6.3L260.3 486.8a31.86 31.86 0 0 0 0 50.3l450.8 352.1c5.3 4.1 12.9.4 12.9-6.3v-77.3c0-4.9-2.3-9.6-6.1-12.6l-360-281 360-281.1c3.8-3 6.1-7.7 6.1-12.6z"
                  />
                </svg>
              </i>
            </a>
          </li>
          <li
            class="ant-pagination-item ant-pagination-item-1 ant-pagination-item-active"
            tabindex="0"
            title="1"
          >
            <a>
              1
            </a>
          </li>
          <li
            class="ant-pagination-item ant-pagination-item-2"
            tabindex="0"
            title="2"
          >
            <a>
              2
            </a>
          </li>
          <li
            class="ant-pagination-item ant-pagination-item-3"
            tabindex="0"
            title="3"
          >
            <a>
              3
            </a>
          </li>
          <li
            aria-disabled="false"
            class=" ant-pagination-next"
            tabindex="0"
            title="Next Page"
          >
            <a
              class="ant-pagination-item-link"
            >
              <i
                aria-label="icon: right"
                class="anticon anticon-right"
              >
                <svg
                  aria-hidden="true"
                  class=""
                  data-icon="right"
                  fill="currentColor"
                  focusable="false"
                  height="1em"
                  viewBox="64 64 896 896"
                  width="1em"
                >
                  <path
                    d="M765.7 486.8L314.9 134.7A7.97 7.97 0 0 0 302 141v77.3c0 4.9 2.3 9.6 6.1 12.6l360 281.1-360 281.1c-3.9 3-6.1 7.7-6.1 12.6V883c0 6.7 7.7 10.4 12.9 6.3l450.8-352.1a31.96 31.96 0 0 0 0-50.4z"
                  />
                </svg>
              </i>
            </a>
          </li>
          <li
            class="ant-pagination-options"
          >
            <div
              class="ant-select-sm ant-pagination-options-size-changer ant-select ant-select-enabled"
            >
              <div
                aria-autocomplete="list"
                aria-controls="test-uuid"
                aria-expanded="false"
                aria-haspopup="true"
                class="ant-select-selection
            ant-select-selection--single"
                role="combobox"
                tabindex="0"
              >
                <div
                  class="ant-select-selection__rendered"
                >
                  <div
                    class="ant-select-selection-selected-value"
                    style="display: block; opacity: 1;"
                    title="10"
                  >
                    10
                  </div>
                </div>
                <span
                  class="ant-select-arrow"
                  style="user-select: none;"
                  unselectable="on"
                >
                  <i
                    aria-label="icon: down"
                    class="anticon anticon-down ant-select-arrow-icon"
                  >
                    <svg
                      aria-hidden="true"
                      class=""
                      data-icon="down"
                      fill="currentColor"
                      focusable="false"
                      height="1em"
                      viewBox="64 64 896 896"
                      width="1em"
                    >
                      <path
                        d="M884 256h-75c-5.1 0-9.9 2.5-12.9 6.6L512 654.2 227.9 262.6c-3-4.1-7.8-6.6-12.9-6.6h-75c-6.5 0-10.3 7.4-6.5 12.7l352.6 486.1c12.8 17.6 39 17.6 51.7 0l352.6-486.1c3.9-5.3.1-12.7-6.4-12.7z"
                      />
                    </svg>
                  </i>
                </span>
              </div>
            </div>
          </li>
        </ul>
      </div>
    </div>
  </div>
</div>
`;
